{
  "type": "FeatureCollection",
  "generator": "overpass-ide",
  "copyright": "The data included in this document is from www.openstreetmap.org. The data is made available under ODbL.",
  "timestamp": "2018-09-10T09:18:02Z",
  "features": [
    {
      "type": "Feature",
      "properties": {
        "@id": "node/17193023",
        "ele": "279",
        "is_in": "Mittelfranken,Bayern,Bundesrepublik Deutschland,Europe",
        "is_in:country_code": "DE",
        "is_in:iso_3166_2": "DE-BY",
        "license_plate_code": "ER",
        "name": "Erlangen",
        "name:ar": "إرلنغن",
        "name:de": "Erlangen",
        "name:en": "Erlangen",
        "name:hu": "Erlangen",
        "name:la": "Erlanga",
        "name:lt": "Erlangenas",
        "name:ru": "Эрланген",
        "name:sr": "Ерланген",
        "name:ta": "எர்லங்கன்",
        "openGeoDB:community_identification_number": "09562",
        "openGeoDB:is_in_loc_id": "164",
        "openGeoDB:license_plate_code": "ER",
        "openGeoDB:loc_id": "608",
        "place": "city",
        "population": "105624",
        "ref:LOCODE": "DEERL",
        "source:population": "Zensus 2013",
        "website": "http://www.erlangen.de/",
        "wikidata": "Q3126",
        "wikipedia": "de:Erlangen"
      },
      "geometry": {
        "type": "Point",
        "coordinates": [
          11.003645,
          49.5981187
        ]
      },
      "id": "node/17193023"
    },
    {
      "type": "Feature",
      "properties": {
        "@id": "node/20833623",
        "capital": "4",
        "ele": "6",
        "is_in": "Hamburg,Bundesrepublik Deutschland,Europe",
        "is_in:country_code": "DE",
        "is_in:iso_3166_2": "DE-HH",
        "name": "Hamburg",
        "name:af": "Hamburg",
        "name:als": "Hamburg",
        "name:an": "Amburgo",
        "name:ar": "هامبورغ",
        "name:arc": "ܗܐܡܒܘܪܓ",
        "name:az": "Hamburq",
        "name:bar": "Hamburg",
        "name:be": "Гамбург",
        "name:bg": "Хамбург",
        "name:bn": "হামবুর্গ",
        "name:br": "Hamburg",
        "name:bs": "Hamburg",
        "name:ca": "Ciutat d'Hamburg",
        "name:cs": "Hamburk",
        "name:cy": "Hamburg",
        "name:da": "Hamborg",
        "name:de": "Hamburg",
        "name:dsb": "Hamburg",
        "name:el": "Αμβούργο",
        "name:en": "Hamburg",
        "name:eo": "Hamburgo",
        "name:es": "Hamburgo",
        "name:et": "Hamburg",
        "name:eu": "Hanburg hiria",
        "name:fa": "هامبورگ",
        "name:fi": "Hampuri",
        "name:fr": "Hambourg",
        "name:fur": "Amburc",
        "name:fy": "Hamboarch",
        "name:ga": "Hamburg",
        "name:gd": "Hamburg",
        "name:gl": "Hamburgo",
        "name:he": "המבורג",
        "name:hr": "Hamburg",
        "name:hsb": "Hamburg",
        "name:hu": "Hamburg",
        "name:hy": "Համբուրգ",
        "name:id": "Hamburg",
        "name:ie": "Hamburg",
        "name:io": "Hamburg",
        "name:is": "Hamborg",
        "name:it": "Amburgo",
        "name:ja": "ハンブルク",
        "name:jv": "Hamburg",
        "name:ka": "ჰამბურგი",
        "name:kn": "ಹಾಂಬುರ್ಕ",
        "name:ko": "함부르크",
        "name:ksh": "Hamborsch",
        "name:ku": "Hamburg",
        "name:la": "Hamburgum",
        "name:lb": "Hamburg",
        "name:lij": "Ambûrgo",
        "name:lt": "Hamburgas",
        "name:lv": "Hamburga",
        "name:mi": "Hamapaka",
        "name:mk": "Хамбург",
        "name:mr": "हांबुर्ग",
        "name:nds": "Hamborg",
        "name:nds-nl": "Hambörg",
        "name:nl": "Hamburg",
        "name:nn": "Hamburg",
        "name:no": "Hamburg",
        "name:oc": "Amborg",
        "name:pam": "Hamburg",
        "name:pl": "Hamburg",
        "name:pt": "Hamburgo",
        "name:qu": "Hamburg",
        "name:rm": "Hamburg",
        "name:ro": "Hamburg",
        "name:ru": "Гамбург",
        "name:scn": "Amburgu",
        "name:short": "HH",
        "name:sk": "Hamburg",
        "name:sl": "Hamburg",
        "name:sq": "Hamburgu",
        "name:sr": "Хамбург",
        "name:sv": "Hamburg",
        "name:sw": "Hamburg",
        "name:szl": "Hamburg",
        "name:th": "ฮัมบูร์ก",
        "name:tr": "Hamburg",
        "name:uk": "Гамбург",
        "name:vec": "Anburgo",
        "name:vi": "Hamburg",
        "name:vo": "Hamburg",
        "name:xh": "Hamburg",
        "name:yi": "האמבורג",
        "name:yue": "漢堡",
        "name:zh": "漢堡市",
        "name:zh-min-nan": "Hamburg",
        "official_status": "Land",
        "official_status:de": "Land",
        "official_status:en": "State",
        "official_status:ru": "земля",
        "openGeoDB:community_identification_number": "02000000",
        "openGeoDB:license_plate_code": "HH",
        "openGeoDB:loc_id": "17838",
        "openGeoDB:postal_codes": "20038,20095,20097,20099,20144,20146,20148,20149,20249,20251,20253,20255,20257,20259,20354,20355,20357,20359,20457,20459,20535,20537,20539,21029,21031,21033,21035,21037,21039,21073,21075,21077,21079,21107,21109,21129,21147,21149,22041,22043,22045,22047,22",
        "openGeoDB:telephone_area_code": "040",
        "place": "city",
        "population": "1812709",
        "ref": "HH",
        "ref:LOCODE": "DEHAM",
        "wikidata": "Q1055",
        "wikipedia": "de:Hamburg"
      },
      "geometry": {
        "type": "Point",
        "coordinates": [
          10.000654,
          53.550341
        ]
      },
      "id": "node/20833623"
    },
    {
      "type": "Feature",
      "properties": {
        "@id": "node/20953083",
        "contact:website": "http://www.stadt-koeln.de",
        "ele": "53",
        "is_in": "Regierungsbezirk Köln,Nordrhein-Westfalen,Bundesrepublik Deutschland,Europe",
        "is_in:country_code": "DE",
        "is_in:iso_3166_2": "DE-NW",
        "loc_name": "Kölle",
        "name": "Köln",
        "name:af": "Keulen",
        "name:als": "Köln",
        "name:ar": "كولونيا",
        "name:bat-smg": "Kiolns",
        "name:be": "Кёльн",
        "name:bg": "Кьолн",
        "name:bs": "Köln",
        "name:ca": "Colònia",
        "name:cs": "Kolín nad Rýnem",
        "name:cy": "Cwlen",
        "name:da": "Köln",
        "name:de": "Köln",
        "name:dsb": "Köln",
        "name:el": "Κολωνία",
        "name:en": "Cologne",
        "name:eo": "Kolonjo",
        "name:es": "Colonia",
        "name:et": "Köln",
        "name:eu": "Kolonia",
        "name:fa": "کلن",
        "name:fi": "Köln",
        "name:fr": "Cologne",
        "name:fy": "Keulen",
        "name:ga": "Köln",
        "name:gl": "Colonia - Köln",
        "name:he": "קלן",
        "name:hi": "कलोन्",
        "name:hr": "Köln",
        "name:hu": "Köln",
        "name:ia": "Colonia",
        "name:id": "Köln",
        "name:io": "Köln",
        "name:is": "Köln",
        "name:it": "Colonia",
        "name:ja": "ケルン",
        "name:ka": "კელნი",
        "name:kn": "ಕಲೋನ್",
        "name:ko": "쾰른",
        "name:ksh": "Kölle",
        "name:ku": "Köln",
        "name:la": "Colonia Agrippina",
        "name:lb": "Köln",
        "name:li": "Kölle",
        "name:lt": "Kelnas",
        "name:lv": "Ķelne",
        "name:mk": "Келн",
        "name:mr": "क्योल्न",
        "name:ms": "Cologne",
        "name:nds": "Köln",
        "name:nl": "Keulen",
        "name:nn": "Köln",
        "name:no": "Köln",
        "name:oc": "Colonha",
        "name:pam": "Cologne",
        "name:pl": "Kolonia",
        "name:pt": "Colônia",
        "name:qu": "Köln",
        "name:ro": "Köln",
        "name:ru": "Кёльн",
        "name:scn": "Culonia",
        "name:sh": "Köln",
        "name:sk": "Kolín nad Rýnom",
        "name:sl": "Köln",
        "name:sq": "Këllni",
        "name:sr": "Келн",
        "name:sv": "Köln",
        "name:sw": "Köln",
        "name:th": "โคโลญ",
        "name:tl": "Cologne",
        "name:tr": "Köln",
        "name:uk": "Кельн",
        "name:vec": "Cołogna",
        "name:vi": "Köln",
        "name:vo": "Köln",
        "name:wuu": "看勒尔",
        "name:yi": "קעלן",
        "name:yue": "古龍",
        "name:zh": "科隆",
        "name:zh-Hans": "科隆",
        "name:zh_pinyin": "Kēlóng",
        "name:zu": "Köln",
        "old_name": "Cöln;Coellen",
        "openGeoDB:community_identification_number": "05315",
        "openGeoDB:license_plate_code": "K",
        "openGeoDB:loc_id": "417",
        "place": "city",
        "population": "1069200",
        "ref:LOCODE": "DECGN",
        "reg_name": "Kölle",
        "source:name": "Wikipedia",
        "website2": "http://www.koeln.de",
        "wikidata": "Q365",
        "wikipedia": "de:Köln"
      },
      "geometry": {
        "type": "Point",
        "coordinates": [
          6.959974,
          50.938361
        ]
      },
      "id": "node/20953083"
    },
    {
      "type": "Feature",
      "properties": {
        "@id": "node/20982927",
        "capital": "4",
        "is_in": "Hansestadt Bremen,Bremen,Bundesrepublik Deutschland,Europe",
        "is_in:country_code": "DE",
        "is_in:iso_3166_2": "DE-HB",
        "name": "Bremen",
        "name:ar": "بريمن",
        "name:be": "Брэмен",
        "name:bg": "Бремен",
        "name:cs": "Brémy",
        "name:de": "Bremen",
        "name:el": "Βρέμη",
        "name:fa": "برمن",
        "name:fr": "Brême",
        "name:fy": "Bremen",
        "name:he": "ברמן",
        "name:hsb": "Bremy",
        "name:hu": "Bréma",
        "name:it": "Brema",
        "name:ja": "ブレーメン",
        "name:ka": "ბრემენი",
        "name:ko": "브레멘",
        "name:la": "Brema",
        "name:lt": "Brėmenas",
        "name:lv": "Brēmene",
        "name:nds": "Bremen",
        "name:oc": "Brèma",
        "name:pl": "Brema",
        "name:ru": "Бремен",
        "name:sc": "Brema",
        "name:sk": "Brémy",
        "name:sq": "Bremeni",
        "name:sr": "Бремен",
        "name:uk": "Бремен",
        "name:zh": "不来梅",
        "official_name": "Bremen",
        "official_status": "Land",
        "official_status:de": "Land",
        "official_status:en": "State",
        "official_status:ru": "земля",
        "openGeoDB:community_identification_number": "04011000",
        "openGeoDB:license_plate_code": "HB",
        "openGeoDB:loc_id": "14937",
        "openGeoDB:postal_codes": "28195,28203,28205,28207,28209,28211,28213,28215,28217,28219,28237,28239,28307,28309,28325,28327,28329,28355,28357,28359,28717,28719,28755,28757,28759,28777,28779,28197,28199,28201,28259,28277,28279",
        "openGeoDB:telephone_area_code": "0421",
        "place": "city",
        "population": "551415",
        "ref:LOCODE": "DEBRE",
        "source:population": "http://www.statistik-bremen.de/aktuelle_statistiken/01b.htm, November 2014",
        "website": "http://www.bremen.de/",
        "wikidata": "Q24879",
        "wikipedia": "de:Bremen"
      },
      "geometry": {
        "type": "Point",
        "coordinates": [
          8.8071646,
          53.0758196
        ]
      },
      "id": "node/20982927"
    },
    {
      "type": "Feature",
      "properties": {
        "@id": "node/25293125",
        "ele": "86",
        "is_in": "Regierungsbezirk Arnsberg,Nordrhein-Westfalen,Bundesrepublik Deutschland,Europe",
        "is_in:country_code": "DE",
        "is_in:iso_3166_2": "DE-NW",
        "name": "Dortmund",
        "name:ar": "دورتمند",
        "name:de": "Dortmund",
        "name:hu": "Dortmund",
        "name:ja": "ドルトムント",
        "name:la": "Tremonia",
        "name:nds": "Düörpm",
        "name:ru": "Дортмунд",
        "name:sr": "Дортмунд",
        "name:uk": "Дортмунд",
        "name:zh": "多特蒙德",
        "openGeoDB:community_identification_number": "05913",
        "openGeoDB:is_in_loc_id": "179",
        "openGeoDB:layer": "5",
        "openGeoDB:license_plate_code": "DO",
        "openGeoDB:loc_id": "404",
        "place": "city",
        "population": "600933",
        "ref:LOCODE": "DEDTM",
        "website": "http://www.dortmund.de",
        "wikidata": "Q1295",
        "wikipedia": "de:Dortmund"
      },
      "geometry": {
        "type": "Point",
        "coordinates": [
          7.4652789,
          51.5142273
        ]
      },
      "id": "node/25293125"
    },
    {
      "type": "Feature",
      "properties": {
        "@id": "node/25738881",
        "ele": "177",
        "is_in": "Unterfranken,Bayern,Bundesrepublik Deutschland,Europe",
        "is_in:country_code": "DE",
        "is_in:iso_3166_2": "DE-BY",
        "name": "Würzburg",
        "name:ar": "فورتسبور",
        "name:bg": "Вюрцбург",
        "name:de": "Würzburg",
        "name:el": "Βύρτσμπουργκ",
        "name:es": "Wurzburgo",
        "name:fr": "Wurtzbourg",
        "name:frr": "Würzbörj",
        "name:he": "וירצבורג",
        "name:hu": "Würzburg",
        "name:ja": "ヴュルツブルク",
        "name:ko": "뷔르츠부르크",
        "name:la": "Herbipolis",
        "name:lt": "Viurcburgas",
        "name:pt": "Wurtzburgo",
        "name:ru": "Вюрцбург",
        "name:sr": "Вирцбург",
        "openGeoDB:community_identification_number": "09679",
        "openGeoDB:license_plate_code": "WÜ",
        "openGeoDB:loc_id": "273",
        "openGeoDB:type": "Kreis",
        "place": "city",
        "population": "124700",
        "ref:LOCODE": "DEWUE",
        "wikidata": "Q2999",
        "wikipedia": "de:Würzburg"
      },
      "geometry": {
        "type": "Point",
        "coordinates": [
          9.932966,
          49.79245
        ]
      },
      "id": "node/25738881"
    },
    {
      "type": "Feature",
      "properties": {
        "@id": "node/27350363",
        "ele": "116",
        "is_in": "Regierungsbezirk Düsseldorf,Nordrhein-Westfalen,Bundesrepublik Deutschland,Europe",
        "is_in:country_code": "DE",
        "is_in:iso_3166_2": "DE-NW",
        "name": "Essen",
        "name:ar": "إسن",
        "name:bg": "Есен",
        "name:el": "Έσσεν",
        "name:fa": "اسن",
        "name:he": "אסן",
        "name:hu": "Essen",
        "name:ja": "エッセン",
        "name:ka": "ესენი",
        "name:kk": "Эссен",
        "name:ko": "에센",
        "name:ksh": "Äßße",
        "name:la": "Assindia",
        "name:li": "Esse",
        "name:lt": "Esenas",
        "name:lv": "Esene",
        "name:mr": "एसेन",
        "name:nds": "Essen",
        "name:ru": "Эссен",
        "name:sr": "Есен",
        "name:th": "เอสเซิน",
        "name:ug": "Ésén",
        "name:uk": "Ессен",
        "name:zh": "埃森",
        "openGeoDB:community_identification_number": "05113",
        "openGeoDB:license_plate_code": "E",
        "openGeoDB:loc_id": "426",
        "place": "city",
        "population": "569884",
        "ref:LOCODE": "DEESS",
        "wikidata": "Q2066",
        "wikipedia": "de:Essen"
      },
      "geometry": {
        "type": "Point",
        "coordinates": [
          7.011429,
          51.457087
        ]
      },
      "id": "node/27350363"
    },
    {
      "type": "Feature",
      "properties": {
        "@id": "node/27418664",
        "alt_name": "Mainhattan",
        "alt_name:en": "Frankfort",
        "ele": "112",
        "is_in": "Darmstadt,Hessen,Bundesrepublik Deutschland,Europe",
        "is_in:country_code": "DE",
        "is_in:iso_3166_2": "DE-HE",
        "loc_name": "Frankfurt",
        "name": "Frankfurt am Main",
        "name:an": "Frankfurt d'o Main",
        "name:ar": "فرانكفورت",
        "name:ca": "Frankfurt del Main",
        "name:cs": "Frankfurt nad Mohanem",
        "name:de": "Frankfurt am Main",
        "name:el": "Φρανκφούρτη",
        "name:eo": "Frankfurto",
        "name:es": "Fráncfort del Meno",
        "name:fr": "Francfort-sur-le-Main",
        "name:he": "פרנקפורט",
        "name:hr": "Frankfurt na Majni",
        "name:hsb": "Frankobrod nad Mohanom",
        "name:hu": "Frankfurt am Main",
        "name:it": "Francoforte sul Meno",
        "name:ja": "フランクフルト・アム・マイン",
        "name:ko": "프랑크푸르트",
        "name:la": "Francofurtum ad Moenum",
        "name:lt": "Frankfurtas prie Maino",
        "name:lv": "Frankfurte pie Mainas",
        "name:ms": "Frankfurt",
        "name:nds": "Frankfort an’n Main",
        "name:pl": "Frankfurt nad Menem",
        "name:ro": "Frankfurt pe Main",
        "name:ru": "Франкфурт-на-Майне",
        "name:sk": "Frankfurt nad Mohanom",
        "name:sl": "Frankfurt na Majni",
        "name:sr": "Франкфурт на Мајни",
        "name:uk": "Франкфурт-на-Майні",
        "name:zh": "法兰克福",
        "openGeoDB:community_identification_number": "06412",
        "openGeoDB:license_plate_code": "F",
        "openGeoDB:loc_id": "522",
        "place": "city",
        "population": "701350",
        "ref:LOCODE": "DEFRA",
        "short_name": "Frankfurt",
        "wikidata": "Q1794",
        "wikipedia": "de:Frankfurt am Main"
      },
      "geometry": {
        "type": "Point",
        "coordinates": [
          8.6820917,
          50.1106444
        ]
      },
      "id": "node/27418664"
    },
    {
      "type": "Feature",
      "properties": {
        "@id": "node/240028377",
        "alt_name:la": "Aquae Mattiacorum",
        "capital": "4",
        "ele": "117",
        "is_in": "Darmstadt,Hessen,Bundesrepublik Deutschland,Europe",
        "is_in:country_code": "DE",
        "is_in:iso_3166_2": "DE-HE",
        "name": "Wiesbaden",
        "name:ar": "فيسبادن",
        "name:de": "Wiesbaden",
        "name:ja": "ヴィースバーデン",
        "name:la": "Aquae Mattiacae",
        "name:lt": "Vysbadenas",
        "name:nds": "Wiesbaden",
        "name:ru": "Висбаден",
        "name:sr": "Висбаден",
        "name:uk": "Вісбаден",
        "name:zh": "威斯巴登",
        "openGeoDB:community_identification_number": "06414000",
        "place": "city",
        "population": "273871",
        "population:date": "2013",
        "ref:LOCODE": "DEWIB",
        "wikidata": "Q1721",
        "wikipedia": "de:Wiesbaden"
      },
      "geometry": {
        "type": "Point",
        "coordinates": [
          8.2416556,
          50.0820384
        ]
      },
      "id": "node/240028377"
    },
    {
      "type": "Feature",
      "properties": {
        "@id": "node/240041315",
        "alt_name": "Bad Aachen",
        "ele": "173",
        "is_in": "Städteregion Aachen,Regierungsbezirk Köln,Nordrhein-Westfalen,Bundesrepublik Deutschland,Europe",
        "is_in:country_code": "DE",
        "is_in:iso_3166_2": "DE-NW",
        "name": "Aachen",
        "name:ca": "Aquisgrà",
        "name:cs": "Cáchy",
        "name:de": "Aachen",
        "name:eo": "Aĥeno",
        "name:es": "Aquisgrán",
        "name:eu": "Akisgran",
        "name:fr": "Aix-la-Chapelle",
        "name:it": "Aquisgrana",
        "name:la": "Aquisgranum",
        "name:lb": "Oochen",
        "name:nb": "Aachen",
        "name:nds": "Aken",
        "name:nl": "Aken",
        "name:pl": "Akwizgran",
        "name:pt": "Aquisgrão",
        "name:ru": "Ахен",
        "name:sr": "Ахен",
        "openGeoDB:community_identification_number": "05313000",
        "openGeoDB:license_plate_code": "AC",
        "openGeoDB:loc_id": "13352",
        "openGeoDB:postal_codes": "52062,52064,52066,52068,52070,52072,52074,52076,52078,52080",
        "openGeoDB:telephone_area_code": "0241",
        "place": "city",
        "population": "241683",
        "ref:LOCODE": "DEAAH",
        "source:population": "Landesbetrieb Information und Technik Nordrhein-Westfalen (IT.NRW)",
        "website": "http://aachen.de/",
        "wikidata": "Q1017",
        "wikipedia": "de:Aachen"
      },
      "geometry": {
        "type": "Point",
        "coordinates": [
          6.083862,
          50.776351
        ]
      },
      "id": "node/240041315"
    },
    {
      "type": "Feature",
      "properties": {
        "@id": "node/240060919",
        "de:amtlicher_gemeindeschluessel": "08222000",
        "is_in:country_code": "DE",
        "is_in:iso_3166_2": "DE-BW",
        "name": "Mannheim",
        "name:ar": "مانهايم",
        "name:da": "Mannheim",
        "name:de": "Mannheim",
        "name:el": "Μάνχαϊμ",
        "name:en": "Mannheim",
        "name:fr": "Mannheim",
        "name:it": "Mannheim",
        "name:ja": "マンハイム",
        "name:la": "Manhemium",
        "name:lb": "Mannheim",
        "name:pfl": "Mannem",
        "name:ru": "Мангейм",
        "name:sr": "Манхајм",
        "name:tr": "Mannheim",
        "name:uk": "Маннгейм",
        "name:zh": "曼海姆",
        "place": "city",
        "population": "307640",
        "ref:LOCODE": "DEMGH",
        "website": "http://www.mannheim.de/",
        "wikidata": "Q2119",
        "wikipedia": "de:Mannheim"
      },
      "geometry": {
        "type": "Point",
        "coordinates": [
          8.467236,
          49.489591
        ]
      },
      "id": "node/240060919"
    },
    {
      "type": "Feature",
      "properties": {
        "@id": "node/240074718",
        "is_in": "Darmstadt,Hessen,Bundesrepublik Deutschland,Europe",
        "is_in:country_code": "DE",
        "is_in:iso_3166_2": "DE-HE",
        "name": "Darmstadt",
        "name:de": "Darmstadt",
        "name:ja": "ダルムシュタット",
        "name:la": "Darmstadium",
        "name:nds": "Darmstadt",
        "name:ru": "Дармштадт",
        "name:sr": "Дармштат",
        "name:zh": "达姆施塔特",
        "openGeoDB:community_identification_number": "06411000",
        "openGeoDB:is_in_loc_id": "517",
        "openGeoDB:layer": "6",
        "openGeoDB:license_plate_code": "DA",
        "openGeoDB:loc_id": "15443",
        "openGeoDB:postal_codes": "64283,64285,64287,64289,64291,64293,64295,64297",
        "openGeoDB:telephone_area_code": "06151",
        "openGeoDB:type": "Wissenschaftsstadt",
        "place": "city",
        "population": "154002",
        "ref:LOCODE": "DEDAR",
        "wikidata": "Q2973",
        "wikipedia": "de:Darmstadt"
      },
      "geometry": {
        "type": "Point",
        "coordinates": [
          8.651177,
          49.872775
        ]
      },
      "id": "node/240074718"
    },
    {
      "type": "Feature",
      "properties": {
        "@id": "node/240076989",
        "capital": "4",
        "ele": "112",
        "image": "Dresden-nightpanorama-dri.jpg",
        "is_in": "Dresden,Sachsen,Bundesrepublik Deutschland,Europe",
        "is_in:country_code": "DE",
        "is_in:iso_3166_2": "DE-SN",
        "name": "Dresden",
        "name:ar": "دريسدن",
        "name:az": "Drezden",
        "name:be": "Дрэздэн",
        "name:cs": "Drážďany",
        "name:de": "Dresden",
        "name:el": "Δρέσδη",
        "name:es": "Dresde",
        "name:fa": "درسدن",
        "name:fr": "Dresde",
        "name:he": "דרזדן",
        "name:hsb": "Drježdźany",
        "name:hu": "Drezda",
        "name:it": "Dresda",
        "name:ja": "ドレスデン",
        "name:ko": "드레스덴",
        "name:la": "Dresda",
        "name:lt": "Dresdenas",
        "name:lv": "Drēzdene",
        "name:nds": "Dresden",
        "name:pl": "Drezno",
        "name:ro": "Dresda",
        "name:ru": "Дрезден",
        "name:sk": "Drážďany",
        "name:sr": "Дрезден",
        "name:uk": "Дрезден",
        "name:zh": "德勒斯登",
        "openGeoDB:community_identification_number": "14612000",
        "openGeoDB:license_plate_code": "DD",
        "openGeoDB:loc_id": "15827",
        "openGeoDB:postal_codes": "01067,01069,01097,01099,01109,01127,01129,01139,01157,01159,01169,01187,01189,01217,01219,01237,01239,01257,01259,01277,01279,01307,01309,01324,01326,01108,01156,01328,01462,01465,01478",
        "openGeoDB:telephone_area_code": "0351",
        "place": "city",
        "population": "538678",
        "ref:LOCODE": "DEDRS",
        "website": "http://www.dresden.de/",
        "wikidata": "Q1731",
        "wikipedia": "de:Dresden"
      },
      "geometry": {
        "type": "Point",
        "coordinates": [
          13.7381437,
          51.0493286
        ]
      },
      "id": "node/240076989"
    },
    {
      "type": "Feature",
      "properties": {
        "@id": "node/240093234",
        "ele": "251",
        "is_in": "Rheinland-Pfalz,Bundesrepublik Deutschland,Europe",
        "is_in:country_code": "DE",
        "is_in:iso_3166_2": "DE-RP",
        "name": "Kaiserslautern",
        "name:ar": "كايزرسلوترن",
        "name:de": "Kaiserslautern",
        "name:ja": "カイザースラウテルン",
        "name:ru": "Кайзерслаутерн",
        "name:sr": "Кајзерслаутерн",
        "name:zh": "凯撒斯劳滕",
        "openGeoDB:community_identification_number": "07312000",
        "openGeoDB:license_plate_code": "KL",
        "openGeoDB:loc_id": "19020",
        "openGeoDB:postal_codes": "67657,67653,67655,67659,67661,67663",
        "openGeoDB:telephone_area_code": "0631",
        "place": "city",
        "population": "97162",
        "ref:LOCODE": "DEKLT",
        "wikidata": "Q3758",
        "wikipedia": "de:Kaiserslautern"
      },
      "geometry": {
        "type": "Point",
        "coordinates": [
          7.7689951,
          49.4432174
        ]
      },
      "id": "node/240093234"
    },
    {
      "type": "Feature",
      "properties": {
        "@id": "node/240109189",
        "admin_level": "2",
        "blind:description:de": "Auf www.berlinfuerblinde.de gibt es einen kostenlosen Audioguide und weitere Informationen.",
        "capital": "yes",
        "capital_ISO3166-1": "yes",
        "ele": "35",
        "email": "info@berlin.de",
        "is_in:country": "Germany",
        "is_in:country_code": "DE",
        "is_in:iso_3166_2": "DE-BE",
        "name": "Berlin",
        "name:ab": "Берлин",
        "name:af": "Berlyn",
        "name:als": "Berlin",
        "name:am": "በርሊን",
        "name:an": "Berlín",
        "name:ang": "Berlin",
        "name:ar": "برلين",
        "name:arc": "ܒܪܠܝܢ",
        "name:arz": "بيرلين",
        "name:ast": "Berlín",
        "name:az": "Berlin",
        "name:ba": "Берлин",
        "name:bar": "Berlin",
        "name:bat-smg": "Berlīns",
        "name:be": "Берлін",
        "name:be-tarask": "Бэрлін",
        "name:bg": "Берлин",
        "name:bi": "Berlin",
        "name:bn": "বার্লিন",
        "name:bo": "པེ་ལིང་",
        "name:br": "Berlin",
        "name:bs": "Berlin",
        "name:bxr": "Берлин",
        "name:ca": "Berlín",
        "name:cbk-zam": "Berlín",
        "name:ckb": "بەرلین",
        "name:co": "Berlinu",
        "name:crh": "Berlin",
        "name:cs": "Berlín",
        "name:csb": "Berlëno",
        "name:cu": "Берлинъ",
        "name:cv": "Берлин",
        "name:cy": "Berlin",
        "name:da": "Berlin",
        "name:de": "Berlin",
        "name:diq": "Berlin",
        "name:dsb": "Barliń",
        "name:el": "Βερολίνο",
        "name:en": "Berlin",
        "name:eo": "Berlino",
        "name:es": "Berlín",
        "name:et": "Berliin",
        "name:eu": "Berlin",
        "name:ext": "Berlín",
        "name:fa": "برلین",
        "name:fi": "Berliini",
        "name:fiu-vro": "Berliin",
        "name:fo": "Berlin",
        "name:fr": "Berlin",
        "name:frp": "Bèrlin",
        "name:fur": "Berlin",
        "name:fy": "Berlyn",
        "name:ga": "Beirlín",
        "name:gan": "柏林",
        "name:gd": "Berlin",
        "name:gl": "Berlín",
        "name:gn": "Berlin",
        "name:gv": "Berleen",
        "name:haw": "Pelelina",
        "name:he": "ברלין",
        "name:hi": "बर्लिन",
        "name:hr": "Berlin",
        "name:hsb": "Berlin",
        "name:ht": "Bèlen",
        "name:hu": "Berlin",
        "name:hy": "Բեռլին",
        "name:ia": "Berlin",
        "name:id": "Berlin",
        "name:ie": "Berlin",
        "name:ilo": "Berlin, Alemania",
        "name:io": "Berlin",
        "name:is": "Berlín",
        "name:it": "Berlino",
        "name:iu": "ᐱᕐᓖᓐ",
        "name:ja": "ベルリン",
        "name:jbo": "berlin",
        "name:jv": "Berlin",
        "name:ka": "ბერლინი",
        "name:kab": "Berlin",
        "name:kbd": "Берлин",
        "name:kk": "Берлин",
        "name:kn": "ಬೆರ್ಲಿನ್",
        "name:ko": "베를린",
        "name:koi": "Берлин",
        "name:ksh": "Bälliin",
        "name:ku": "Berlîn",
        "name:kv": "Берлин",
        "name:kw": "Berlin",
        "name:ky": "Берлин",
        "name:la": "Berolinum",
        "name:lb": "Berlin",
        "name:lez": "Берлин",
        "name:lg": "Berlin",
        "name:li": "Berlien",
        "name:lij": "Berlin",
        "name:lmo": "Berlin",
        "name:ln": "Berlin",
        "name:lt": "Berlynas",
        "name:ltg": "Berlins",
        "name:lv": "Berlīne",
        "name:mg": "Berlin",
        "name:mhr": "Берлин",
        "name:mi": "Pearīni",
        "name:mk": "Берлин",
        "name:ml": "ബെര്‍ലിന്‍",
        "name:mn": "Берлин",
        "name:mr": "बर्लिन",
        "name:mrj": "Берлин",
        "name:ms": "Berlin",
        "name:mt": "Berlin",
        "name:my": "ဘာလင်မြို့",
        "name:myv": "Берлин ош",
        "name:mzn": "برلین",
        "name:na": "Berlin",
        "name:nah": "Berlin",
        "name:nap": "Berlino",
        "name:nds": "Berlin",
        "name:nds-nl": "Berlien",
        "name:nl": "Berlijn",
        "name:nn": "Berlin",
        "name:no": "Berlin",
        "name:nov": "Berlin",
        "name:nrm": "Bèrlîn",
        "name:oc": "Berlin",
        "name:os": "Берлин",
        "name:pam": "Berlin",
        "name:pdc": "Berlin, Deitschland",
        "name:pfl": "Balin",
        "name:pl": "Berlin",
        "name:pms": "Berlin",
        "name:pnb": "برلن",
        "name:pnt": "Βερολίνον",
        "name:prefix": "Land und Kreisfreie Stadt",
        "name:ps": "برلين",
        "name:pt": "Berlim",
        "name:qu": "Berlin",
        "name:rm": "Berlin",
        "name:rmy": "Berlin",
        "name:ro": "Berlin",
        "name:roa-rup": "Berlin",
        "name:roa-tara": "Berline",
        "name:ru": "Берлин",
        "name:rue": "Берлін",
        "name:sah": "Берлин",
        "name:sc": "Berlinu",
        "name:scn": "Birlinu",
        "name:sco": "Berlin",
        "name:se": "Berlin",
        "name:sh": "Berlin",
        "name:short": "BE",
        "name:si": "බර්ලිනය",
        "name:sk": "Berlín",
        "name:sl": "Berlin",
        "name:so": "Berlin",
        "name:sq": "Berlini",
        "name:sr": "Берлин",
        "name:stq": "Berlin",
        "name:su": "Berliini",
        "name:sv": "Berlin",
        "name:sw": "Berlin",
        "name:szl": "Berlin",
        "name:ta": "பெர்லின்",
        "name:te": "బెర్లిన్",
        "name:tet": "Berlín",
        "name:tg": "Берлин",
        "name:th": "เบอร์ลิน",
        "name:tl": "Berlin",
        "name:tpi": "Berlin",
        "name:tr": "Berlin",
        "name:tt": "Берлин",
        "name:ty": "Berlin",
        "name:tzl": "Berlin",
        "name:udm": "Берлин",
        "name:ug": "Bérlin",
        "name:uk": "Берлін",
        "name:ur": "برلن",
        "name:uz": "Berlin",
        "name:vec": "Berlin",
        "name:vi": "Béc-lin",
        "name:vls": "Berlyn",
        "name:wo": "Berlin",
        "name:xmf": "ბერლინი",
        "name:yi": "בערלין",
        "name:yo": "Berlin",
        "name:yue": "柏林",
        "name:zea": "Berlijn",
        "name:zh": "柏林",
        "name:zh-classical": "柏林",
        "name:zh-min-nan": "Berlin",
        "name:zu": "Berlin",
        "official_status": "Land",
        "official_status:de": "Land",
        "official_status:en": "State",
        "official_status:ru": "земля",
        "old_name:vi": "Bá Linh",
        "openGeoDB:community_identification_number": "11000000",
        "openGeoDB:license_plate_code": "B",
        "openGeoDB:loc_id": "14356",
        "openGeoDB:postal_codes": "10178,10115,10117,10119,10179,10243,10245,10247,10249,10315,10317,10318,10319,10365,10367,10369,10405,10407,10409,10435,10437,10439,10551,10553,10555,10557,10559,10585,10587,10589,10623,10625,10627,10629,10707,10709,10711,10713,10715,10717,10719,10777,10",
        "openGeoDB:telephone_area_code": "030",
        "place": "city",
        "population": "3531201",
        "ref:LOCODE": "DEBER",
        "website": "https://www.berlin.de/",
        "wikidata": "Q64",
        "wikipedia": "de:Berlin"
      },
      "geometry": {
        "type": "Point",
        "coordinates": [
          13.3888599,
          52.5170365
        ]
      },
      "id": "node/240109189"
    },
    {
      "type": "Feature",
      "properties": {
        "@id": "node/240114473",
        "ele": "110",
        "is_in": "Kreis Paderborn,Regierungsbezirk Detmold,Nordrhein-Westfalen,Bundesrepublik Deutschland,Europe",
        "is_in:country_code": "DE",
        "is_in:iso_3166_2": "DE-NW",
        "name": "Paderborn",
        "name:de": "Paderborn",
        "name:en": "Paderborn",
        "name:es": "Paderborn",
        "name:fr": "Paderborn",
        "name:it": "Paderborn",
        "name:ja": "パーダーボルン",
        "name:la": "Paderbronna",
        "name:ru": "Падерборн",
        "name:sr": "Падерборн",
        "openGeoDB:community_identification_number": "05774032",
        "openGeoDB:license_plate_code": "PB",
        "openGeoDB:loc_id": "22287",
        "openGeoDB:postal_codes": "33098,33100,33102,33104,33106",
        "openGeoDB:telephone_area_code": "05251",
        "place": "city",
        "population": "143659",
        "ref:LOCODE": "DEPAD",
        "website": "http://www.paderborn.de",
        "wikidata": "Q2971",
        "wikipedia": "de:Paderborn"
      },
      "geometry": {
        "type": "Point",
        "coordinates": [
          8.752653,
          51.7177044
        ]
      },
      "id": "node/240114473"
    },
    {
      "type": "Feature",
      "properties": {
        "@id": "node/240120582",
        "capital": "5",
        "de:amtlicher_gemeindeschluessel": "08212000",
        "ele": "114",
        "is_in:country_code": "DE",
        "is_in:iso_3166_2": "DE-BW",
        "name": "Karlsruhe",
        "name:als": "Karlsrueh",
        "name:ar": "كارلسروه",
        "name:az": "Karlsruye",
        "name:bg": "Карлсруе",
        "name:cv": "Карлсруэ",
        "name:el": "Καρλσρούη",
        "name:fa": "کارلسروهه",
        "name:he": "קארלסרוהה",
        "name:ja": "カールスルーエ",
        "name:ka": "კარლსრუე",
        "name:ko": "카를스루에",
        "name:la": "Carolsruha",
        "name:lv": "Karlsrūe",
        "name:mk": "Карлсруе",
        "name:pfl": "Kallsruh",
        "name:ru": "Карлсруэ",
        "name:sr": "Карлсруе",
        "name:uk": "Карлсруе",
        "name:zh": "卡尔斯鲁厄",
        "place": "city",
        "population": "283959",
        "ref:LOCODE": "DEKAE",
        "wikidata": "Q1040"
      },
      "geometry": {
        "type": "Point",
        "coordinates": [
          8.4034195,
          49.0068705
        ]
      },
      "id": "node/240120582"
    },
    {
      "type": "Feature",
      "properties": {
        "@id": "node/240126753",
        "capital": "4",
        "ele": "38",
        "int_name": "Dusseldorf",
        "is_in": "Regierungsbezirk Düsseldorf,Nordrhein-Westfalen,Bundesrepublik Deutschland,Europe",
        "is_in:country_code": "DE",
        "is_in:iso_3166_2": "DE-NW",
        "name": "Düsseldorf",
        "name:ar": "دوسلدورف",
        "name:be": "Дзюсельдорф",
        "name:de": "Düsseldorf",
        "name:en": "Dusseldorf",
        "name:fr": "Düsseldorf",
        "name:ja": "デュッセルドルフ",
        "name:la": "Dusseldorpium",
        "name:lt": "Diuseldorfas",
        "name:ru": "Дюссельдорф",
        "name:sr": "Диселдорф",
        "name:uk": "Дюссельдорф",
        "name:zh": "杜塞尔多夫",
        "name:zh-TW": "杜塞道夫",
        "openGeoDB:community_identification_number": "05111000",
        "openGeoDB:license_plate_code": "D",
        "openGeoDB:loc_id": "15879",
        "openGeoDB:postal_codes": "40213,40210,40211,40212,40215,40217,40219,40221,40223,40225,40227,40229,40231,40233,40235,40237,40239,40468,40470,40472,40474,40476,40477,40479,40489,40545,40547,40549,40589,40591,40593,40595,40597,40599,40625,40627,40629",
        "openGeoDB:telephone_area_code": "0211",
        "place": "city",
        "population": "598686",
        "ref:LOCODE": "DEDUS",
        "website": "https://www.duesseldorf.de",
        "wikidata": "Q1718",
        "wikipedia": "de:Düsseldorf"
      },
      "geometry": {
        "type": "Point",
        "coordinates": [
          6.7763137,
          51.2254018
        ]
      },
      "id": "node/240126753"
    },
    {
      "type": "Feature",
      "properties": {
        "@id": "node/1583294719",
        "alt_name:la": "Castellum Hassiae",
        "ele": "167",
        "is_in": "Kassel,Hessen,Bundesrepublik Deutschland,Europe",
        "is_in:country_code": "DE",
        "is_in:iso_3166_2": "DE-HE",
        "name": "Kassel",
        "name:ar": "كاسل",
        "name:bg": "Касел",
        "name:de": "Kassel",
        "name:el": "Κάσσελ",
        "name:en": "Kassel",
        "name:eo": "Kaselo",
        "name:es": "Cassel",
        "name:fa": "کاسل",
        "name:fr": "Cassel",
        "name:he": "קאסל",
        "name:ja": "カッセル",
        "name:kk": "Кассель",
        "name:ko": "카셀",
        "name:la": "Cassala",
        "name:lt": "Kaselis",
        "name:lv": "Kasele",
        "name:mk": "Касел",
        "name:pnb": "کیسل",
        "name:ru": "Кассель",
        "name:sq": "Kaseli",
        "name:sr": "Касел",
        "name:th": "คัสเซิล",
        "name:uk": "Кассель",
        "name:zh": "卡塞尔",
        "old_name": "Cassel",
        "place": "city",
        "population": "194087",
        "ref:LOCODE": "DEKAS",
        "source:old_name": "https://de.wikipedia.org/wiki/Kassel",
        "website": "http://www.kassel.de",
        "wikidata": "Q2865"
      },
      "geometry": {
        "type": "Point",
        "coordinates": [
          9.4762981,
          51.3090209
        ]
      },
      "id": "node/1583294719"
    },
    {
      "type": "Feature",
      "properties": {
        "@id": "node/1646638496",
        "contact:website": "http://www.stadt.bamberg.de/",
        "ele": "262",
        "heritage": "1",
        "heritage:operator": "whc",
        "heritage:ref": "624",
        "heritage:since": "1993",
        "heritage:website": "http://whc.unesco.org/en/list/624",
        "is_in": "Oberfranken,Bayern,Bundesrepublik Deutschland,Europe",
        "name": "Bamberg",
        "name:ar": "بامبرغ",
        "name:cs": "Bamberk",
        "name:el": "Μπάμπεργκ",
        "name:fa": "بامبرگ",
        "name:he": "במברג",
        "name:hsb": "Bamberg",
        "name:ja": "バンベルク",
        "name:ru": "Бамберг",
        "name:sr": "Бамберг",
        "name:th": "บัมแบร์ก",
        "name:zh": "班贝格",
        "old_name:hsb": "Babin",
        "place": "town",
        "population": "72821",
        "wikidata": "Q3936",
        "wikipedia": "de:Bamberg"
      },
      "geometry": {
        "type": "Point",
        "coordinates": [
          10.8876149,
          49.8926723
        ]
      },
      "id": "node/1646638496"
    },
    {
      "type": "Feature",
      "properties": {
        "@id": "node/1651888734",
        "capital": "4",
        "is_in": "Niedersachsen,Bundesrepublik Deutschland,Europe",
        "is_in:country_code": "DE",
        "is_in:iso_3166_2": "DE-NI",
        "name": "Hannover",
        "name:ar": "هانوفر",
        "name:be": "Гановер",
        "name:bg": "Хановер",
        "name:bn": "হানোফার",
        "name:ce": "Хановер",
        "name:ckb": "هانۆڤەر",
        "name:de": "Hannover",
        "name:el": "Αννόβερο",
        "name:en": "Hanover",
        "name:eo": "Hanovro",
        "name:fa": "هانوفر",
        "name:fr": "Hanovre",
        "name:gd": "Hànobhar",
        "name:gl": "Hannóver - Hannover",
        "name:he": "הנובר",
        "name:hy": "Հաննովեր",
        "name:ja": "ハノーファー",
        "name:ka": "ჰანოვერი",
        "name:kk": "Ганновер",
        "name:ko": "하노버",
        "name:la": "Hannovera",
        "name:lt": "Hanoveris",
        "name:lv": "Hannovere",
        "name:mk": "Хановер",
        "name:mn": "Ханновер",
        "name:mr": "हानोफर",
        "name:ms": "Hanover",
        "name:nds": "Hannober",
        "name:nl": "Hannover",
        "name:os": "Ганновер",
        "name:pl": "Hanower",
        "name:pt": "Hanôver",
        "name:ro": "Hanovra",
        "name:ru": "Ганновер",
        "name:sq": "Hanoveri",
        "name:sr": "Хановер",
        "name:th": "ฮันโนเวอร์",
        "name:ug": "Hanofér",
        "name:uk": "Ганновер",
        "name:xh": "IHanoveri",
        "name:yi": "האנאווער",
        "name:yo": "Hanover",
        "name:zh": "汉诺威",
        "place": "city",
        "population": "525875",
        "ref:LOCODE": "DEHAJ",
        "reg_name": "Hannover",
        "version": "2012.07.16",
        "wikidata": "Q1715",
        "wikipedia": "de:Hannover"
      },
      "geometry": {
        "type": "Point",
        "coordinates": [
          9.7385532,
          52.3744779
        ]
      },
      "id": "node/1651888734"
    },
    {
      "type": "Feature",
      "properties": {
        "@id": "node/1674026139",
        "alt_name:cs": "Štukart;Štokart",
        "capital": "4",
        "de:amtlicher_gemeindeschluessel": "08111",
        "ele": "247",
        "is_in:country": "Germany",
        "is_in:country_code": "DE",
        "is_in:iso_3166_2": "DE-BW",
        "name": "Stuttgart",
        "name:ar": "شتوتغارت",
        "name:cs": "Štíhrad",
        "name:de": "Stuttgart",
        "name:en": "Stuttgart",
        "name:fr": "Stuttgart",
        "name:gsw": "Stuegert",
        "name:it": "Stoccarda",
        "name:ja": "シュトゥットガルト",
        "name:ko": "슈투트가르트",
        "name:la": "Stutgardia",
        "name:lt": "Štutgartas",
        "name:lv": "Štutgarte",
        "name:pfl": "Schduggad",
        "name:pt": "Estugarda",
        "name:ru": "Штутгарт",
        "name:sr": "Штутгарт",
        "name:swg": "Schtugert",
        "name:th": "ชตุทท์การ์ท",
        "name:uk": "Штутгарт",
        "name:zh": "斯图加特",
        "old_name:fr": "Stutgard",
        "place": "city",
        "population": "613392",
        "ref:LOCODE": "DESTR",
        "wikidata": "Q1022",
        "wikipedia": "de:Stuttgart"
      },
      "geometry": {
        "type": "Point",
        "coordinates": [
          9.1800132,
          48.7784485
        ]
      },
      "id": "node/1674026139"
    },
    {
      "type": "Feature",
      "properties": {
        "@id": "node/1674619101",
        "is_in": "Niedersachsen,Bundesrepublik Deutschland,Europe",
        "is_in:country_code": "DE",
        "is_in:iso_3166_2": "DE-NI",
        "name": "Göttingen",
        "name:de": "Göttingen",
        "name:es": "Gotinga",
        "name:fr": "Gœttingue",
        "name:it": "Gottinga",
        "name:ja": "ゲッティンゲン",
        "name:la": "Gottinga",
        "name:lt": "Gėtingenas",
        "name:nds": "Chöttingen",
        "name:pl": "Getynga",
        "name:ru": "Гёттинген",
        "name:sr": "Гетинген",
        "openGeoDB:community_identification_number": "03152012",
        "openGeoDB:is_in_loc_id": "573",
        "openGeoDB:layer": "6",
        "openGeoDB:license_plate_code": "GÖ",
        "openGeoDB:loc_id": "17176",
        "openGeoDB:name": "Göttingen, Niedersachsen",
        "openGeoDB:postal_codes": "37083,37073,37075,37077,37079,37081,37085",
        "openGeoDB:telephone_area_code": "0551",
        "place": "city",
        "population": "134212",
        "ref:LOCODE": "DEGOE",
        "start_date": "953",
        "wikidata": "Q3033",
        "wikipedia": "de:Göttingen"
      },
      "geometry": {
        "type": "Point",
        "coordinates": [
          9.9352051,
          51.5327604
        ]
      },
      "id": "node/1674619101"
    },
    {
      "type": "Feature",
      "properties": {
        "@id": "node/1699831958",
        "is_in": "Tübingen,Baden-Württemberg,Bundesrepublik Deutschland,Europe",
        "is_in:country_code": "DE",
        "is_in:iso_3166_2": "DE-BW",
        "name": "Ulm",
        "name:de": "Ulm",
        "name:dsb": "Ulm",
        "name:en": "Ulm",
        "name:fr": "Ulm",
        "name:hy": "Ուլմ",
        "name:it": "Ulmo",
        "name:ja": "ウルム",
        "name:ka": "ულმი",
        "name:la": "Ulma",
        "name:ru": "Ульм",
        "name:sr": "Улм",
        "name:uk": "Ульм",
        "name:zh": "乌尔姆",
        "openGeoDB:community_identification_number": "08421",
        "openGeoDB:license_plate_code": "UL",
        "openGeoDB:loc_id": "374",
        "openGeoDB:type": "Stadtkreis",
        "place": "city",
        "population": "121648",
        "ref:LOCODE": "DEULM",
        "website": "http://www.ulm.de/ulm/",
        "wikidata": "Q3012",
        "wikimedia_commons": "Category:Ulm",
        "wikipedia": "de:Ulm"
      },
      "geometry": {
        "type": "Point",
        "coordinates": [
          9.9932755,
          48.3973944
        ]
      },
      "id": "node/1699831958"
    },
    {
      "type": "Feature",
      "properties": {
        "@id": "node/1700534808",
        "alt_name:la": "Monachium;Monachum",
        "capital": "4",
        "ele": "519",
        "int_name": "Munich",
        "is_in": "Oberbayern,Bayern,Bundesrepublik Deutschland,Europe",
        "is_in:country_code": "DE",
        "is_in:iso_3166_2": "DE-BY",
        "name": "München",
        "name:als": "Münche",
        "name:ar": "ميونخ",
        "name:az": "Münhen",
        "name:bar": "Minga",
        "name:be": "Мюнхен",
        "name:be-tarask": "Мюнхэн",
        "name:bg": "Мюнхен",
        "name:ca": "Munic",
        "name:cs": "Mnichov",
        "name:da": "München",
        "name:de": "München",
        "name:dsb": "München",
        "name:el": "Μόναχο",
        "name:en": "Munich",
        "name:eo": "Munkeno",
        "name:es": "Múnich",
        "name:eu": "Munich",
        "name:fa": "مونیخ",
        "name:fi": "München",
        "name:fr": "Munich",
        "name:gl": "Múnic",
        "name:he": "מינכן",
        "name:hi": "म्यूनिख",
        "name:hr": "München",
        "name:hsb": "Mnichow",
        "name:hy": "Մյունխեն",
        "name:it": "Monaco di Baviera",
        "name:ja": "ミュンヘン",
        "name:ka": "მიუნხენი",
        "name:kk": "Мюнхен",
        "name:kn": "ಮುನಿಕ್",
        "name:la": "Monacum",
        "name:lt": "Miunchenas",
        "name:lv": "Minhene",
        "name:nl": "München",
        "name:oc": "Munic",
        "name:pl": "Monachium",
        "name:pt": "Munique",
        "name:ru": "Мюнхен",
        "name:sh": "München",
        "name:sk": "Mníchov",
        "name:sr": "Минхен",
        "name:tr": "Münih",
        "name:uz": "Munhen",
        "name:vi": "München",
        "name:zh": "慕尼黑",
        "openGeoDB:community_identification_number": "09162",
        "openGeoDB:license_plate_code": "M",
        "openGeoDB:loc_id": "212",
        "openGeoDB:telephone_area_code": "089",
        "openGeoDB:type": "Landeshauptstadt",
        "place": "city",
        "population": "1528849",
        "ref:LOCODE": "DEMUC",
        "source:name:oc": "Lo Congrès",
        "source:population": "muenchen.de (Stand: 30.4.2016)",
        "website": "http://www.muenchen.de/",
        "wikidata": "Q1726",
        "wikipedia": "de:München"
      },
      "geometry": {
        "type": "Point",
        "coordinates": [
          11.5753822,
          48.1371079
        ]
      },
      "id": "node/1700534808"
    }
  ]
}